^D:\projects\skillbox\lesson11\lesson11.vcxproj
D:\projects\skillbox\lesson11\Release\lesson11.ipdb
D:\projects\skillbox\lesson11\Release\lesson11.iobj
^D:\projects\skillbox\lesson11\lesson11.vcxproj
D:\projects\skillbox\lesson11\Release\lesson11.ipdb
D:\projects\skillbox\lesson11\Release\lesson11.iobj
